^D:\DESKTOP\OPSWAT_MASTER\TASK-2\HASHER\HASHER\HASHMAKER.CPP
/c /I. /IC:\QT\QT5.6.2\5.6\MSVC2015_64\INCLUDE /I.\GENERATEDFILES\DEBUG /IC:\QT\QT5.6.2\5.6\MSVC2015_64\INCLUDE\QTCORE /IC:\QT\QT5.6.2\5.6\MSVC2015_64\INCLUDE\QTSQL /Zi /nologo /W1 /WX- /Od /D UNICODE /D WIN32 /D QT_DLL /D QT_CORE_LIB /D QT_SQL_LIB /Gm- /EHsc /MDd /GS /fp:precise /Zc:wchar_t /Zc:forScope /Zc:inline /Fo"X64\DEBUG\\" /Fd"X64\DEBUG\VC140.PDB" /Gd /TP D:\DESKTOP\OPSWAT_MASTER\TASK-2\HASHER\HASHER\HASHMAKER.CPP
^D:\DESKTOP\OPSWAT_MASTER\TASK-2\HASHER\HASHER\HASHDATABASE.CPP
/c /I. /IC:\QT\QT5.6.2\5.6\MSVC2015_64\INCLUDE /I.\GENERATEDFILES\DEBUG /IC:\QT\QT5.6.2\5.6\MSVC2015_64\INCLUDE\QTCORE /IC:\QT\QT5.6.2\5.6\MSVC2015_64\INCLUDE\QTSQL /Zi /nologo /W1 /WX- /Od /D UNICODE /D WIN32 /D QT_DLL /D QT_CORE_LIB /D QT_SQL_LIB /Gm- /EHsc /MDd /GS /fp:precise /Zc:wchar_t /Zc:forScope /Zc:inline /Fo"X64\DEBUG\\" /Fd"X64\DEBUG\VC140.PDB" /Gd /TP D:\DESKTOP\OPSWAT_MASTER\TASK-2\HASHER\HASHER\HASHDATABASE.CPP
^D:\DESKTOP\OPSWAT_MASTER\TASK-2\HASHER\HASHER\MAIN.CPP
/c /I. /IC:\QT\QT5.6.2\5.6\MSVC2015_64\INCLUDE /I.\GENERATEDFILES\DEBUG /IC:\QT\QT5.6.2\5.6\MSVC2015_64\INCLUDE\QTCORE /IC:\QT\QT5.6.2\5.6\MSVC2015_64\INCLUDE\QTSQL /Zi /nologo /W1 /WX- /Od /D UNICODE /D WIN32 /D QT_DLL /D QT_CORE_LIB /D QT_SQL_LIB /Gm- /EHsc /MDd /GS /fp:precise /Zc:wchar_t /Zc:forScope /Zc:inline /Fo"X64\DEBUG\\" /Fd"X64\DEBUG\VC140.PDB" /Gd /TP D:\DESKTOP\OPSWAT_MASTER\TASK-2\HASHER\HASHER\MAIN.CPP
